# mkinitcpio preset file for the '%PKGBASE%' package

ALL_config="/etc/mkinitcpio.conf"
ALL_kver="%KERNVER%"

PRESETS=('default' 'fallback')

#default_config="/etc/mkinitcpio.conf"
default_image="/boot/initramfs-linux-lts.img"
#default_options=""

#fallback_config="/etc/mkinitcpio.conf"
fallback_image="/boot/initramfs-linux-lts-fallback.img"
fallback_options="-S autodetect"
