# mkinitcpio preset file for the '%PKGBASE%' package

ALL_config="/etc/mkinitcpio.conf"
ALL_kver="%KERNVER%"

PRESETS=('default')

#default_config="/etc/mkinitcpio.conf"
default_image="/boot/initramfs-linux-radxa.img"
#default_options=""

#fallback_config="/etc/mkinitcpio.conf"
fallback_image="/boot/initramfs-linux-radxa-fallback.img"
fallback_options="-S autodetect"
